…
``` r
fn <- paste0("local_assets/exampledata_", target, ".csv")
exampledata <- if(file.exists(fn)){
    read_csv(fn)
} else {
    generate_example_data(target = target, output_dir = "local_assets")
}
exampledata |> print(n = 10)
```

    # A tibble: 105 × 3
       date       target_resp_est other_ed_visits
       <date>               <dbl>           <dbl>
     1 2022-09-25          12845.        2663154.
     2 2022-10-02          17944.        2660260.
     3 2022-10-09          24184.        2662877.
     4 2022-10-16          34832.        2665344.
     5 2022-10-23          67945.        2671781.
     6 2022-10-30         102299.        2677558.
     7 2022-11-06         108113.        2678298.
     8 2022-11-13         118563.        2677737.
     9 2022-11-20         192262.        2690222.
    10 2022-11-27         177716.        2693308.
    # ℹ 95 more rows
…
