…
``` r
forecast_source <- "scoringutilhelpers/assets/examplepredictions"
truthdata_file <- "scoringutilhelpers/assets/exampletruthdata.tsv"
scorable_data <- join_forecast_and_data(forecast_source, truthdata_file,
        join_key = join_by(area, target_end_date == date)) |>
        collect()
scorable_data |> print(n = 10)        
```

    # A tibble: 50,400 × 9
       area  reference_date target_end_date prediction .chain .iteration .draw model
       <chr> <date>         <date>               <dbl>  <int>      <int> <int> <chr>
     1 A     2024-10-24     2024-10-31           0.794      1          1     1 exam…
     2 A     2024-10-24     2024-10-31           0.722      1          2     2 exam…
     3 A     2024-10-24     2024-10-31           0.728      1          3     3 exam…
     4 A     2024-10-24     2024-10-31           1.09       1          4     4 exam…
     5 A     2024-10-24     2024-10-31           0.774      1          5     5 exam…
     6 A     2024-10-24     2024-10-31           0.835      1          6     6 exam…
     7 A     2024-10-24     2024-10-31           0.938      1          7     7 exam…
     8 A     2024-10-24     2024-10-31           0.848      1          8     8 exam…
     9 A     2024-10-24     2024-10-31           1.05       1          9     9 exam…
    10 A     2024-10-24     2024-10-31           0.745      1         10    10 exam…
    # ℹ 50,390 more rows
    # ℹ 1 more variable: truthdata <dbl>
…
